0	27.5840838006724
0.03	27.6032949452748
0.06	27.6210596954165
0.09	27.6378029512533
0.12	27.6534947395773
0.15	27.6623628151661
0.18	27.6664516683878
0.21	27.6703257443679
0.24	27.6743662792939
0.27	27.6781016196234
0.3	27.6818988028601
0.33	27.6857434796456
0.36	27.6895401598588
0.39	27.6930483820974
0.42	27.6963628981814
0.45	27.6999327430823
0.48	27.7031576683524
0.51	27.7063352478902
0.54	27.7095256750719
0.57	27.7127162169577
0.6	27.7157745688813
0.63	27.7189329197015
0.66	27.7218905152708
0.69	27.7248665481312
0.72	27.7276937144185
0.75	27.730515882151
0.78	27.7333574114555
0.81	27.7359035190999
0.84	27.7384140389707
0.87	27.7405822539173
0.9	27.742820540594
0.93	27.7449020680867
0.96	27.7468608743202
0.99	27.748534569248
1.02	27.7503294730702
1.05	27.7520044951857
1.08	27.7536108970538
1.11	27.755050799321
1.14	27.7563246277998
1.17	27.7574202614013
1.2	27.7583873790941
1.23	27.7592157474448
1.26	27.759831928331
1.29	27.7602963989976
1.32	27.7605786753983
1.35	27.7606804965262
1.38	27.7606365881608
1.41	27.7604717957691
1.44	27.7602090612903
1.47	27.7599387738087
1.5	27.7595610536987
1.53	27.7589751982217
1.56	27.7582328380285
1.59	27.7573194837321
1.62	27.7567985640738
1.65	27.7562214283216
1.68	27.7555849543725
1.71	27.7548860877416
1.74	27.7542195383996
1.77	27.7534940665944
1.8	27.7527069324498
1.83	27.7519500341113
1.86	27.7510844861693
1.89	27.7502377505609
1.92	27.749328680647
1.95	27.7484268100535
1.98	27.7473514646597
2.01	27.7463001840942
2.04	27.7452202080667
2.07	27.744192616441
2.1	27.7430603027091
2.13	27.7420693091902
2.16	27.7410601119558
2.19	27.7401410847375
2.22	27.739208373716
2.25	27.7382624026422
2.28	27.7373035869764
2.31	27.7362868634539
2.34	27.7354639851107
2.37	27.7344936190931
2.4	27.7337470277711
2.43	27.733017938575
2.46	27.7323545934164
2.49	27.7316149737754
2.52	27.730942341107
2.55	27.7302412030519
2.58	27.7294867875739
2.61	27.7287519845831
2.64	27.7280867869875
2.67	27.7273186268952
2.7	27.7266458323911
2.73	27.7259194080938
2.76	27.7252648710641
2.79	27.7245312644799
2.82	27.7238194944
2.85	27.723053210355
2.88	27.7223089533418
2.91	27.7215613345568
2.94	27.7202907343236
2.97	27.7187490574376
3	27.7173273540648
3.03	27.7166658626129
3.06	27.7164802823824
3.09	27.7168248059604
3.12	27.7170630022059
3.15	27.7175385978792
3.18	27.7176705171147
3.21	27.7175913755912
3.24	27.7176705171147
3.27	27.7175913755912
3.3	27.7176705171147
3.33	27.7175913755912
3.36	27.7176968909301
3.39	27.7175913755912
3.42	27.7176705171147
3.45	27.7175913755912
3.48	27.7176705171147
3.51	27.7175913755912
3.54	27.7176441399508
3.57	27.7176177594418
3.6	27.7176705171147
3.63	27.7175913755912
3.66	27.7176441399508
3.69	27.7175913755912
3.72	27.7176705171147
3.75	27.7175649884025
3.78	27.7176705171147
3.81	27.7175649884025
3.84	27.7176705171147
3.87	27.7176177594418
3.9	27.7176441399508
3.93	27.7175649884025
3.96	27.7176705171147
3.99	27.7176177594418
4.02	27.7176705171147
4.05	27.7175913755912
4.08	27.7176705171147
4.11	27.7176177594418
4.14	27.7176705171147
4.17	27.7175913755912
4.2	27.7176705171147
4.23	27.7176177594418
4.26	27.7176705171147
4.29	27.7175913755912
4.32	27.7176705171147
4.35	27.7176177594418
4.38	27.7176705171147
4.41	27.7175913755912
4.44	27.7176705171147
4.47	27.7175913755912
4.5	27.7176705171147
4.53	27.7175913755912
4.56	27.7176441399508
4.59	27.7175649884025
4.62	27.7176968909301
4.65	27.7175913755912
4.68	27.7176441399508
4.71	27.7175913755912
4.74	27.7176705171147
4.77	27.7175913755912
4.8	27.7176441399508
4.83	27.7175913755912
4.86	27.7176968909301
4.89	27.7175649884025
4.92	27.7176441399508
4.95	27.7175649884025
4.98	27.7176705171147
5.01	27.7175913755912
5.04	27.7176441399508
5.07	27.7175913755912
5.1	27.7176441399508
5.13	27.7175913755912
5.16	27.7176441399508
5.19	27.7175913755912
5.22	27.7176441399508
5.25	27.7175913755912
5.28	27.7176441399508
5.31	27.7175913755912
5.34	27.7176441399508
5.37	27.7175913755912
5.4	27.7176441399508
5.43	27.7175913755912
5.46	27.7176441399508
5.49	27.7175913755912
5.52	27.7176441399508
5.55	27.7175913755912
5.58	27.7176441399508
5.61	27.7175913755912
5.64	27.7176441399508
5.67	27.7175913755912
5.7	27.7176441399508
5.73	27.7175913755912
5.76	27.7176441399508
5.79	27.7175913755912
5.82	27.7176441399508
5.85	27.7175913755912
5.88	27.7176441399508
5.91	27.7175913755912
5.94	27.7176441399508
5.97	27.7175913755912
6	27.7176441399508
