0	-2.14255011282849
0.05	-2.80586388075274
0.1	-3.46615602976332
0.15	-3.95482490819484
0.2	-4.08598854852975
0.25	-4.22096492757495
0.3	-4.34615514232607
0.35	-4.47255296578374
0.4	-4.60376860633926
0.45	-4.73247076976367
0.5	-4.85253208195061
0.55	-4.97384596109399
0.6	-5.09224146534664
0.65	-5.20952745173541
0.7	-5.3249756099022
0.75	-5.42332579123231
0.8	-5.52267766866075
0.85	-5.62300244998951
0.9	-5.72486854375166
0.95	-5.82166254913556
1	-5.91565290604179
1.05	-6.00009701486693
1.1	-6.08010935197683
1.15	-6.14465752936221
1.2	-6.20892421781868
1.25	-6.27832074789984
1.3	-6.32786355029121
1.35	-6.35752603778582
1.4	-6.3331321171124
1.45	-6.2530278213266
1.5	-6.2334608926608
1.55	-6.51182119475196
1.6	-6.79026279840406
1.65	-6.89928857283315
1.7	-7.02721814998253
1.75	-7.14606122275138
1.8	-7.2676403243949
1.85	-7.38750808910278
1.9	-7.50042014652575
1.95	-7.61408942033417
2	-7.74163933800653
2.05	-7.85980788742448
2.1	-7.97502503977872
2.15	-8.04902178187583
2.2	-8.14529050064666
2.25	-8.23453295975384
2.3	-8.31901062720258
2.35	-8.40792490903202
2.4	-8.50384743332294
2.45	-8.6019013460519
2.5	-8.69661615345912
2.55	-8.7907611259574
2.6	-8.89377066396285
2.65	-8.99775886574219
2.7	-9.09534008104558
2.75	-9.19513373524614
2.8	-9.30095179873408
2.85	-9.40617617355103
2.9	-9.51896883991691
2.95	-9.70194219013189
3	-9.9376611380916
3.05	-10.0838482140552
3.1	-10.1308339254296
3.15	-10.0776483998236
3.2	-10.0710735590475
3.25	-10.0819118435202
3.3	-10.0710735590475
3.35	-10.0739583630463
3.4	-10.0718790671683
3.45	-10.0792612542762
3.5	-10.0755706191181
3.55	-10.0739583630463
3.6	-10.0710735590475
3.65	-10.0766100941889
3.7	-10.0755706191181
3.75	-10.07845514758
3.8	-10.0684215893056
3.85	-10.07845514758
3.9	-10.0782213674751
3.95	-10.0774160512862
4	-10.0710735590475
4.05	-10.0739583630463
4.1	-10.0763757856488
4.15	-10.0774160512862
4.2	-10.0710735590475
4.25	-10.0739583630463
4.3	-10.0737249577579
4.35	-10.0800667200943
4.4	-10.0710735590475
4.45	-10.0739583630463
4.5	-10.0710735590475
4.55	-10.0819118435202
4.6	-10.0710735590475
4.65	-10.0739583630463
4.7	-10.0710735590475
4.75	-10.0792612542762
4.8	-10.0755706191181
4.85	-10.0766100941889
4.9	-10.0710735590475
4.95	-10.081106228096
5	-10.0737249577579
5.05	-10.0713060606373
5.1	-10.0782213674751
5.15	-10.0713060606373
5.2	-10.0782213674751
5.25	-10.0713060606373
5.3	-10.0782213674751
5.35	-10.0713060606373
5.4	-10.0782213674751
5.45	-10.0713060606373
5.5	-10.0782213674751
5.55	-10.0713060606373
5.6	-10.0782213674751
5.65	-10.0713060606373
5.7	-10.0782213674751
5.75	-10.0713060606373
5.8	-10.0782213674751
5.85	-10.0713060606373
5.9	-10.0782213674751
5.95	-10.0713060606373
6	-2.54562416395772
6.05	-3.23191150882504
6.1	-3.93829101322052
6.15	-4.64321404683456
6.2	-5.3483141446023
6.25	-6.05883077572097
6.3	-6.76910074256702
6.35	-7.48725212795989
6.4	-8.22048661777117
6.45	-8.93186053527397
6.5	-9.53448415062844
6.55	-9.92117523125636
6.6	-10.1737995028424
6.65	-10.3262872556606
6.7	-10.4222003062072
6.75	-10.4636309226681
6.8	-10.4521293543062
6.85	-10.4021163330032
6.9	-10.3519754404131
6.95	-10.284864291057
7	-10.2184155886785
7.05	-10.156548738966
7.1	-10.1172603524373
7.15	-10.1258230207472
7.2	-10.1282645931194
7.25	-10.1258230207472
7.3	-10.1282645931194
7.35	-10.1258230207472
7.4	-10.1282645931194
7.45	-10.1258230207472
7.5	-10.1282645931194
7.55	-10.1258230207472
7.6	-10.1282645931194
7.65	-10.1258230207472
7.7	-10.1282645931194
7.75	-10.1258230207472
7.8	-10.1282645931194
7.85	-10.1258230207472
7.9	-10.1282645931194
7.95	-10.1258230207472
8	-10.1282645931194
8.05	-18.2989200106324
8.1	-18.6595253657011
8.15	-18.9508900771715
8.2	-19.2298087419747
8.25	-19.4508438420912
8.3	-19.6974310424708
8.35	-19.8871213106105
8.4	-19.994432330411
8.45	-20.0730159088948
8.5	-20.070658097829
8.55	-20.1094596498823
8.6	-20.0999918979632
8.65	-20.0935696176361
8.7	-20.0851754284898
8.75	-20.0834404226039
8.8	-20.0802465954028
8.85	-20.0834404226039
8.9	-20.0802465954028
8.95	-20.0834404226039
9	-20.0802465954028
9.05	-20.0834404226039
9.1	-20.0802465954028
9.15	-20.0834404226039
9.2	-20.0802465954028
9.25	-20.0834404226039
9.3	-20.0802465954028
9.35	-20.0834404226039
9.4	-20.0802465954028
9.45	-20.0834404226039
9.5	-20.0802465954028
9.55	-20.0834404226039
9.6	-20.0802465954028
9.65	-20.0834404226039
9.7	-20.0802465954028
9.75	-20.0834404226039
9.8	-20.0802465954028
9.85	-20.0834404226039
9.9	-20.0802465954028
9.95	-20.0834404226039
10	-20.0802465954028
