0	-2.45736600881852
0.03	-2.84835293171373
0.06	-3.23791683282403
0.09	-3.62637628840239
0.12	-4.01419889193166
0.15	-4.23205072264593
0.18	-4.31020043084341
0.21	-4.38567242471254
0.24	-4.46496702925208
0.27	-4.53668878663301
0.3	-4.6120446165451
0.33	-4.68924310996795
0.36	-4.75829372585478
0.39	-4.83467588583009
0.42	-4.90505692836405
0.45	-4.98634326459828
0.48	-5.05356883410812
0.51	-5.12943461455346
0.54	-5.19621991044915
0.57	-5.26753731269267
0.6	-5.33373646271435
0.63	-5.40488713451739
0.66	-5.4657471004184
0.69	-5.52982398812174
0.72	-5.59171393755203
0.75	-5.6508185753094
0.78	-5.70951790474407
0.81	-5.76435314627648
0.84	-5.82126330370135
0.87	-5.88077453856738
0.9	-5.93719575979885
0.93	-5.98684413705947
0.96	-6.04442523471446
0.99	-6.10389148937087
1.02	-6.15332556016889
1.05	-6.19639460887086
1.08	-6.24063159037907
1.11	-6.28336678757516
1.14	-6.3201987447949
1.17	-6.35490639429599
1.2	-6.38663653066065
1.23	-6.43084567700954
1.26	-6.4533350773649
1.29	-6.48791057416469
1.32	-6.51027787643059
1.35	-6.51499939231297
1.38	-6.50244576796197
1.41	-6.47020717688432
1.44	-6.42832424056345
1.47	-6.33874908033807
1.5	-6.37561284019314
1.53	-6.53324814135325
1.56	-6.70564837053643
1.59	-6.88988829127049
1.62	-6.95448502633926
1.65	-7.0228716583065
1.68	-7.09760508749915
1.71	-7.17599234212366
1.74	-7.23719828320238
1.77	-7.30735746014697
1.8	-7.3784746085163
1.83	-7.44540070840488
1.86	-7.51977229896948
1.89	-7.58955244139872
1.92	-7.65216813094076
1.95	-7.71240372686327
1.98	-7.79143965687558
2.01	-7.86325574903385
2.04	-7.93422049149516
2.07	-7.99606686721111
2.1	-8.05995686440208
2.13	-8.09845910262305
2.16	-8.15263489886943
2.19	-8.20428104796028
2.22	-8.25817859514678
2.25	-8.30885211875109
2.28	-8.35904129022813
2.31	-8.40996011858118
2.34	-8.45914642876058
2.37	-8.51153092321442
2.4	-8.56878514328583
2.43	-8.6238513362735
2.46	-8.68390040452353
2.49	-8.73854184673821
2.52	-8.80094744179837
2.55	-8.84856435870757
2.58	-8.91358172923176
2.61	-8.96820937235002
2.64	-9.02790820452799
2.67	-9.08677458652375
2.7	-9.14608419307728
2.73	-9.20623486229524
2.76	-9.26601964768143
2.79	-9.32850149804995
2.82	-9.38618357979842
2.85	-9.45010643908429
2.88	-9.51195588416281
2.91	-9.58173457358503
2.94	-9.68519823974815
2.97	-9.83049802358032
3	-9.97113255518855
3.03	-10.0642208951987
3.06	-10.1300162183149
3.09	-10.1623847662654
3.12	-10.1435942556768
3.15	-10.1112497095482
3.18	-10.1049001760768
3.21	-10.1155930413967
3.24	-10.1049001760768
3.27	-10.107651365644
3.3	-10.1049001760768
3.33	-10.1155930413967
3.36	-10.1057475922047
3.39	-10.107651365644
3.42	-10.1049001760768
3.45	-10.1129463809822
3.48	-10.1049001760768
3.51	-10.107651365644
3.54	-10.109347437398
3.57	-10.1137937577383
3.6	-10.1049001760768
3.63	-10.1102991558005
3.66	-10.109347437398
3.69	-10.1129463809822
3.72	-10.1049001760768
3.75	-10.112098364978
3.78	-10.1075476275178
3.81	-10.112098364978
3.84	-10.1022521596851
3.87	-10.1111470218812
3.9	-10.1119942486829
3.93	-10.112098364978
3.96	-10.1022521596851
3.99	-10.1111470218812
4.02	-10.1075476275178
4.05	-10.107651365644
4.08	-10.1022521596851
4.11	-10.1111470218812
4.14	-10.1101945142157
4.17	-10.107651365644
4.2	-10.1049001760768
4.23	-10.1137937577383
4.26	-10.1075476275178
4.29	-10.107651365644
4.32	-10.1049001760768
4.35	-10.1137937577383
4.38	-10.1075476275178
4.41	-10.1050030103058
4.44	-10.1049001760768
4.47	-10.1155930413967
4.5	-10.1049001760768
4.53	-10.107651365644
4.56	-10.109347437398
4.59	-10.1147455147102
4.62	-10.1057475922047
4.65	-10.107651365644
4.68	-10.109347437398
4.71	-10.1129463809822
4.74	-10.1049001760768
4.77	-10.107651365644
4.8	-10.109347437398
4.83	-10.1102991558005
4.86	-10.1031000653736
4.89	-10.112098364978
4.92	-10.109347437398
4.95	-10.1147455147102
4.98	-10.1049001760768
5.01	-10.1050030103058
5.04	-10.1119942486829
5.07	-10.1050030103058
5.1	-10.1119942486829
5.13	-10.1050030103058
5.16	-10.1119942486829
5.19	-10.1050030103058
5.22	-10.1119942486829
5.25	-10.1050030103058
5.28	-10.1119942486829
5.31	-10.1050030103058
5.34	-10.1119942486829
5.37	-10.1050030103058
5.4	-10.1119942486829
5.43	-10.1050030103058
5.46	-10.1119942486829
5.49	-10.1050030103058
5.52	-10.1119942486829
5.55	-10.1050030103058
5.58	-10.1119942486829
5.61	-10.1050030103058
5.64	-10.1119942486829
5.67	-10.1050030103058
5.7	-10.1119942486829
5.73	-10.1050030103058
5.76	-10.1119942486829
5.79	-10.1050030103058
5.82	-10.1119942486829
5.85	-10.1050030103058
5.88	-10.1119942486829
5.91	-10.1050030103058
5.94	-10.1119942486829
5.97	-10.1050030103058
6	-10.1119942486829
