0	-14.2071674040703
0.03	-14.2764978508406
0.06	-14.3440432087917
0.09	-14.4040523470196
0.12	-14.4572301523027
0.15	-14.4734832313752
0.18	-14.4572430784422
0.21	-14.4408160044764
0.24	-14.4216239947756
0.27	-14.399929613359
0.3	-14.3774328858215
0.33	-14.3525272042727
0.36	-14.3182402647655
0.39	-14.294994076289
0.42	-14.2685218515804
0.45	-14.2416080105998
0.48	-14.2082963511053
0.51	-14.180908214379
0.54	-14.1410948609186
0.57	-14.1013253906316
0.6	-14.0569331580486
0.63	-14.0087659144122
0.66	-13.9533230990769
0.69	-13.8946439166785
0.72	-13.8340697220224
0.75	-13.7647446608333
0.78	-13.6867817610472
0.81	-13.6116757821505
0.84	-13.5323296596169
0.87	-13.4660136487705
0.9	-13.3843636523258
0.93	-13.2965146453387
0.96	-13.2140873018268
0.99	-13.1440304610123
1.02	-13.0438361316514
1.05	-12.9336715496956
1.08	-12.8143222728499
1.11	-12.691641170681
1.14	-12.5614764233477
1.17	-12.4294395753596
1.2	-12.2864001187049
1.23	-12.1448648722745
1.26	-11.9893334163377
1.29	-11.8349954543706
1.32	-11.667281439699
1.35	-11.4934469948263
1.38	-11.3137838519318
1.41	-11.1218801625343
1.44	-10.9293100038608
1.47	-10.7271903821303
1.5	-10.6275407268894
1.53	-10.6047378123533
1.56	-10.586359244157
1.59	-10.5698449663185
1.62	-10.5326168778006
1.65	-10.4950497045832
1.68	-10.4596179209715
1.71	-10.423785053157
1.74	-10.3819264318107
1.77	-10.3447409046176
1.8	-10.3045732724044
1.83	-10.2687586203874
1.86	-10.2300992110472
1.89	-10.1933504608409
1.92	-10.1457442475809
1.95	-10.1000897248695
1.98	-10.0566175382022
2.01	-10.0124694704285
2.04	-9.96771541517281
2.07	-9.92238537716337
2.1	-9.8711070275295
2.13	-9.81128847730492
2.16	-9.76705632979052
2.19	-9.73064607793256
2.22	-9.69660472632568
2.25	-9.65951072868334
2.28	-9.62207272027736
2.31	-9.58144203991869
2.34	-9.55746765955054
2.37	-9.52465178479416
2.4	-9.5170929617856
2.43	-9.50950082141801
2.46	-9.51310703218167
2.49	-9.50535007230714
2.52	-9.51160818179449
2.55	-9.50106739270825
2.58	-9.50419247570365
2.61	-9.49897716467315
2.64	-9.50509104775444
2.67	-9.50244440948624
2.7	-9.50845775653777
2.73	-9.51145202635334
2.76	-9.52026292438449
2.79	-9.52595795682314
2.82	-9.5288986324092
2.85	-9.5343974155458
2.88	-9.53994383072745
2.91	-9.55386224995361
2.94	-9.56286235366404
2.97	-9.59596299194824
3	-9.63508867626899
3.03	-9.68291444592127
3.06	-9.73822711115671
3.09	-9.79831893973099
3.12	-9.79646534081533
3.15	-9.79832430889952
3.18	-9.80162491899154
3.21	-9.80689419511154
3.24	-9.80162491899154
3.27	-9.79852944875098
3.3	-9.80162491899154
3.33	-9.80689419511154
3.36	-9.80451489540328
3.39	-9.79852944875098
3.42	-9.80162491899154
3.45	-9.80410630280641
3.48	-9.80162491899154
3.51	-9.79852944875098
3.54	-9.80431074061817
3.57	-9.8069963446148
3.6	-9.80162491899154
3.63	-9.80131805404277
3.66	-9.80431074061817
3.69	-9.80410630280641
3.72	-9.80162491899154
3.75	-9.80121562426307
3.78	-9.80441285340011
3.81	-9.80121562426307
3.84	-9.79883662809026
3.87	-9.80420855708131
3.9	-9.80709842337844
3.93	-9.80121562426307
3.96	-9.79883662809026
3.99	-9.80420855708131
4.02	-9.80441285340011
4.05	-9.79852944875098
4.08	-9.79883662809026
4.11	-9.80420855708131
4.14	-9.8072004313856
4.17	-9.79852944875098
4.2	-9.80162491899154
4.23	-9.8069963446148
4.26	-9.80441285340011
4.29	-9.79852944875098
4.32	-9.80162491899154
4.35	-9.8069963446148
4.38	-9.80441285340011
4.41	-9.79574048686177
4.44	-9.80162491899154
4.47	-9.80689419511154
4.5	-9.80162491899154
4.53	-9.79852944875098
4.56	-9.80431074061817
4.59	-9.8040039778086
4.62	-9.80451489540328
4.65	-9.79852944875098
4.68	-9.80431074061817
4.71	-9.80410630280641
4.74	-9.80162491899154
4.77	-9.79852944875098
4.8	-9.80431074061817
4.83	-9.80131805404277
4.86	-9.80172706578287
4.89	-9.80121562426307
4.92	-9.80431074061817
4.95	-9.8040039778086
4.98	-9.80162491899154
5.01	-9.79574048686177
5.04	-9.80709842337844
5.07	-9.79574048686177
5.1	-9.80709842337844
5.13	-9.79574048686177
5.16	-9.80709842337844
5.19	-9.79574048686177
5.22	-9.80709842337844
5.25	-9.79574048686177
5.28	-9.80709842337844
5.31	-9.79574048686177
5.34	-9.80709842337844
5.37	-9.79574048686177
5.4	-9.80709842337844
5.43	-9.79574048686177
5.46	-9.80709842337844
5.49	-9.79574048686177
5.52	-9.80709842337844
5.55	-9.79574048686177
5.58	-9.80709842337844
5.61	-9.79574048686177
5.64	-9.80709842337844
5.67	-9.79574048686177
5.7	-9.80709842337844
5.73	-9.79574048686177
5.76	-9.80709842337844
5.79	-9.79574048686177
5.82	-9.80709842337844
5.85	-9.79574048686177
5.88	-9.80709842337844
5.91	-9.79574048686177
5.94	-9.80709842337844
5.97	-9.79574048686177
6	-9.80709842337844
