0	-14.6783576039941
0.05	-14.7779483543503
0.1	-14.8579033709328
0.15	-14.897406632314
0.2	-14.8658896964742
0.25	-14.8270326580611
0.3	-14.7864282377471
0.35	-14.7339809725963
0.4	-14.6885320325357
0.45	-14.6345835807041
0.5	-14.5753894548638
0.55	-14.5065933338126
0.6	-14.4331884262778
0.65	-14.3435368927336
0.7	-14.2458961032237
0.75	-14.1218774413894
0.8	-13.9859156152499
0.85	-13.8534507932799
0.9	-13.7205684328458
0.95	-13.5723166241333
1	-13.4372587514171
1.05	-13.2476043043969
1.1	-13.0389565941766
1.15	-12.8141257906537
1.2	-12.5740554003228
1.25	-12.3239579047629
1.3	-12.0449590117951
1.35	-11.7522109914495
1.4	-11.4352635671973
1.45	-11.1035061783621
1.5	-10.8635424608169
1.55	-10.8165255764381
1.6	-10.776228362692
1.65	-10.7066015779062
1.7	-10.6381468594866
1.75	-10.5680704822178
1.8	-10.4990134340926
1.85	-10.4310494213351
1.9	-10.3590943319002
1.95	-10.2776577289404
2	-10.1995662442724
2.05	-10.1172899943562
2.1	-10.0306144193583
2.15	-9.93828935985185
2.2	-9.86613196548654
2.25	-9.80459585964105
2.3	-9.73660029316084
2.35	-9.68193466206352
2.4	-9.64957438793855
2.45	-9.64318392809423
2.5	-9.63383135603355
2.55	-9.62428149279184
2.6	-9.61982065989034
2.65	-9.62105061460832
2.7	-9.62258225072545
2.75	-9.62678381482895
2.8	-9.63335631468419
2.85	-9.63980818337672
2.9	-9.65456776281758
2.95	-9.67520225013027
3	-9.72732629053254
3.05	-9.81782789742137
3.1	-9.89263256174178
3.15	-9.89128028324832
3.2	-9.89488306452308
3.25	-9.8999822806309
3.3	-9.89488306452308
3.35	-9.89160455552719
3.4	-9.89783692770836
3.45	-9.89719005528799
3.5	-9.89751362297588
3.55	-9.89160455552719
3.6	-9.89488306452308
3.65	-9.89439748027506
3.7	-9.89751362297588
3.75	-9.89423548742829
3.8	-9.89209047112429
3.85	-9.89423548742829
3.9	-9.90030562746823
3.95	-9.89735187199236
4	-9.89488306452308
4.05	-9.89160455552719
4.1	-9.90046720228789
4.15	-9.89735187199236
4.2	-9.89488306452308
4.25	-9.89160455552719
4.3	-9.89767530822265
4.35	-9.9001439869106
4.4	-9.89488306452308
4.45	-9.89160455552719
4.5	-9.89488306452308
4.55	-9.8999822806309
4.6	-9.89488306452308
4.65	-9.89160455552719
4.7	-9.89488306452308
4.75	-9.89719005528799
4.8	-9.89751362297588
4.85	-9.89439748027506
4.9	-9.89488306452308
4.95	-9.89702817287658
5	-9.89767530822265
5.05	-9.88881128097987
5.1	-9.90030562746823
5.15	-9.88881128097987
5.2	-9.90030562746823
5.25	-9.88881128097987
5.3	-9.90030562746823
5.35	-9.88881128097987
5.4	-9.90030562746823
5.45	-9.88881128097987
5.5	-9.90030562746823
5.55	-9.88881128097987
5.6	-9.90030562746823
5.65	-9.88881128097987
5.7	-9.90030562746823
5.75	-9.88881128097987
5.8	-9.90030562746823
5.85	-9.88881128097987
5.9	-9.90030562746823
5.95	-9.88881128097987
6	-1.92245728237951
6.05	-2.48421628426152
6.1	-3.04772387500321
6.15	-3.61255511257228
6.2	-4.17505197129862
6.25	-4.73972812376678
6.3	-5.30327454530105
6.35	-5.86800671364513
6.4	-6.423988008796
6.45	-6.98812728512991
6.5	-7.5544466945609
6.55	-8.03967222825503
6.6	-8.45360576974405
6.65	-8.79873771547032
6.7	-9.10257152655847
6.75	-9.3347452843144
6.8	-9.49347050706131
6.85	-9.58326661959548
6.9	-9.67154401885198
6.95	-9.70858085579365
7	-9.71162056512203
7.05	-9.70977579552886
7.1	-9.69286874838371
7.15	-9.71676919992217
7.2	-9.72057276064267
7.25	-9.71676919992217
7.3	-9.72057276064267
7.35	-9.71676919992217
7.4	-9.72057276064267
7.45	-9.71676919992217
7.5	-9.72057276064267
7.55	-9.71676919992217
7.6	-9.72057276064267
7.65	-9.71676919992217
7.7	-9.72057276064267
7.75	-9.71676919992217
7.8	-9.72057276064267
7.85	-9.71676919992217
7.9	-9.72057276064267
7.95	-9.71676919992217
8	-9.72057276064267
8.05	-17.6389239363475
8.1	-17.9162030446106
8.15	-18.1604599601387
8.2	-18.4039341611248
8.25	-18.630424627158
8.3	-18.8554892084627
8.35	-19.0545823039181
8.4	-19.2364556001051
8.45	-19.3978694896289
8.5	-19.5314399993857
8.55	-19.6621359201257
8.6	-19.7187448084963
8.65	-19.7806169498471
8.7	-19.8374779143582
8.75	-19.8454917925077
8.8	-19.8437703789524
8.85	-19.8454917925077
8.9	-19.8437703789524
8.95	-19.8454917925077
9	-19.8437703789524
9.05	-19.8454917925077
9.1	-19.8437703789524
9.15	-19.8454917925077
9.2	-19.8437703789524
9.25	-19.8454917925077
9.3	-19.8437703789524
9.35	-19.8454917925077
9.4	-19.8437703789524
9.45	-19.8454917925077
9.5	-19.8437703789524
9.55	-19.8454917925077
9.6	-19.8437703789524
9.65	-19.8454917925077
9.7	-19.8437703789524
9.75	-19.8454917925077
9.8	-19.8437703789524
9.85	-19.8454917925077
9.9	-19.8437703789524
9.95	-19.8454917925077
10	-19.8437703789524
