27.6129863094982	20
27.6197231580353	20.1632653061224
27.6265602092398	20.3265306122449
27.6334897579455	20.4897959183673
27.6405029719103	20.6530612244898
27.6475897884605	20.8163265306122
27.65473880254	20.9795918367347
27.6619371454118	21.1428571428571
27.6691703531742	21.3061224489796
27.676422224165	21.469387755102
27.683674664223	21.6326530612245
27.6909075186575	21.7959183673469
27.6980983896403	21.9591836734694
27.7052224375802	22.1224489795918
27.7122521648595	22.2857142857143
27.7191571801072	22.4489795918367
27.7259039409421	22.6122448979592
27.7324554728453	22.7755102040816
27.7387710614943	22.9387755102041
27.7448059155205	23.1020408163265
27.7505107962061	23.265306122449
27.7558316101239	23.4285714285714
27.7607089601142	23.5918367346939
27.765077649275	23.7551020408163
27.7688661317924	23.9183673469388
27.7719959034281	24.0816326530612
27.7743808232734	24.2448979591837
27.7759263569399	24.4081632653061
27.776528729619	24.5714285714286
27.7760739753515	24.734693877551
27.7744368663114	24.8979591836735
27.7714797028174	25.0612244897959
27.7670509410072	25.2244897959184
27.7609836304625	25.3877551020408
27.7530936283238	25.5510204081633
27.743177549293	25.7142857142857
27.7310104019831	25.8775510204082
27.7163428508218	26.0408163265306
27.698898028462	26.2040816326531
27.6783678054401	26.3673469387755
27.6544084004094	26.530612244898
27.6266351838909	26.6938775510204
27.5946164887357	26.8571428571429
27.5578661879756	27.0204081632653
27.5158347306749	27.1836734693878
27.4678982318696	27.3469387755102
27.4133450836761	27.5102040816327
27.351359376311	27.6734693877551
27.2810001678162	27.8367346938776
27.20117528565	28
