23.7575164228381	20
23.7350673692313	20.1632653061224
23.7116203328965	20.3265306122449
23.6871246066259	20.4897959183673
23.6615263298422	20.6530612244898
23.634768238599	20.8163265306122
23.6067893905115	20.9795918367347
23.5775248615373	21.1428571428571
23.5469054110789	21.3061224489796
23.5148571113519	21.469387755102
23.4813009363433	21.6326530612245
23.4461523049561	21.7959183673469
23.4093205720772	21.9591836734694
23.3707084602788	22.1224489795918
23.3302114236519	22.2857142857143
23.2877169338103	22.4489795918367
23.2431036763625	22.6122448979592
23.1962406440378	22.7755102040816
23.1469861101095	22.9387755102041
23.0951864626503	23.1020408163265
23.0406748763683	23.265306122449
22.9832697941066	23.4285714285714
22.9227731843316	23.5918367346939
22.8589685337758	23.7551020408163
22.7916185254444	23.9183673469388
22.7204623409296	24.0816326530612
22.6452125116884	24.2448979591837
22.5655512257103	24.4081632653061
22.4811259725413	24.5714285714286
22.3915443792044	24.734693877551
22.2963680497357	24.8979591836735
22.1951051684557	25.0612244897959
22.0872015568979	25.2244897959184
21.9720297796209	25.3877551020408
21.8488757648647	25.5510204081633
21.7169222273071	25.7142857142857
21.5752279296812	25.8775510204082
21.422701463564	26.0408163265306
21.2580677139913	26.2040816326531
21.0798244129436	26.3673469387755
20.886185045134	26.530612244898
20.6750026152136	26.6938775510204
20.4436660217726	26.8571428571429
20.1889563059626	27.0204081632653
19.9068425543812	27.1836734693878
19.5921842490387	27.3469387755102
19.2382833661156	27.5102040816327
18.8361848854314	27.6734693877551
18.3735344168076	27.8367346938776
17.8326070030708	28
