27.3811687901658	20
27.388274706291	20.1632653061224
27.3954856976574	20.3265306122449
27.4027936125225	20.4897959183673
27.410189113245	20.6530612244898
27.4176615679173	20.8163265306122
27.4251989329996	20.9795918367347
27.4327876261606	21.1428571428571
27.4404123884448	21.3061224489796
27.4480561347877	21.469387755102
27.4556997917901	21.6326530612245
27.4633221215366	21.7959183673469
27.470899530095	21.9591836734694
27.4784058591702	22.1224489795918
27.4858121591891	22.2857142857143
27.4930864418738	22.4489795918367
27.5001934101007	22.6122448979592
27.5070941625421	22.7755102040816
27.5137458702406	22.9387755102041
27.5201014218555	23.1020408163265
27.5261090338432	23.265306122449
27.5317118212707	23.4285714285714
27.5368473242996	23.5918367346939
27.5414469845922	23.7551020408163
27.5454355649625	23.9183673469388
27.5487305044844	24.0816326530612
27.5512411999484	24.2448979591837
27.5528682029659	24.4081632653061
27.5535023201087	24.5714285714286
27.5530236011553	24.734693877551
27.5513001977032	24.8979591836735
27.5481870709738	25.0612244897959
27.5435245234237	25.2244897959184
27.5371365235848	25.3877551020408
27.5288287871142	25.5510204081633
27.5183865690042	25.7142857142857
27.5055721118252	25.8775510204082
27.4901216821345	26.0408163265306
27.4717421109934	26.2040816326531
27.4501067337605	26.3673469387755
27.424850597511	26.530612244898
27.3955647694709	26.6938775510204
27.3617895338891	26.8571428571429
27.3230062037375	27.0204081632653
27.2786271917254	27.1836734693878
27.2279838739604	27.3469387755102
27.1703116268791	27.5102040816327
27.1047312054682	27.6734693877551
27.0302253304932	27.8367346938776
26.9456089215492	28
