0	-10
1.51515151515152	-10.3026194383999
3.03030303030303	-10.6046831716843
4.54545454545454	-10.9061593663781
6.06060606060606	-11.2070125241635
7.57575757575758	-11.5072032280569
9.09090909090909	-11.8066878619749
10.6060606060606	-12.1054183013854
12.1212121212121	-12.4033415724818
13.6363636363636	-12.7003994770338
15.1515151515152	-12.9965281797461
16.6666666666667	-13.2916577545821
18.1818181818182	-13.5857116861027
19.6969696969697	-13.8786063213988
21.2121212121212	-14.1702502676521
22.7272727272727	-14.4605437297602
24.2424242424242	-14.749377781755
25.7575757575758	-15.0366335649363
27.2727272727273	-15.3221814047192
28.7878787878788	-15.6058798371239
30.3030303030303	-15.8875745345862
31.8181818181818	-16.1670971193205
33.3333333333333	-16.4442638507724
34.8484848484849	-16.7188741717137
36.3636363636364	-16.9907090951905
37.8787878787879	-17.2595294117749
39.3939393939394	-17.5250736932889
40.9090909090909	-17.7870560652816
42.4242424242424	-18.0451637158705
43.9393939393939	-18.2990541029881
45.4545454545455	-18.54835181535
46.969696969697	-18.7926450343655
48.4848484848485	-19.0314815343875
50	-19.2643641467674
51.5151515151515	-19.4907455986446
53.030303030303	-19.7100226196123
54.5454545454545	-19.9215291875972
56.0606060606061	-20.1245287584465
57.5757575757576	-20.3182052908429
59.0909090909091	-20.5016528371266
60.6060606060606	-20.6738634207958
62.1212121212121	-20.8337128582509
63.6363636363636	-20.9799441071113
65.1515151515152	-21.1111476257039
66.6666666666667	-21.2257381160073
68.1818181818182	-21.3219268717194
69.6969696969697	-21.3976887913012
71.2121212121212	-21.4507228858116
72.7272727272727	-21.4784048972714
73.7373737373737	-21.481308936397
74.7474747474748	-21.4706213710951
75.7575757575758	-21.4452454388967
76.7676767676768	-21.4039735849634
77.7777777777778	-21.345474042166
78.7878787878788	-21.2682756965984
79.7979797979798	-21.1707510617596
80.8080808080808	-21.0510971913102
81.8181818181818	-20.9073143761738
82.8282828282828	-20.7371825100312
83.8383838383838	-20.5382350660869
84.8484848484848	-20.3077307171866
85.8585858585859	-20.0426227679704
86.8686868686869	-19.739526748527
87.8787878787879	-19.3946867584758
88.8888888888889	-19.0039414534179
89.8989898989899	-18.562690941969
90.9090909090909	-18.0658662493654
91.9191919191919	-17.5079034170498
92.9292929292929	-16.8827247289623
93.9393939393939	-16.1837297064912
94.4444444444444	-15.8043173054715
94.9494949494949	-15.4037374119232
95.4545454545455	-14.9810208258356
95.959595959596	-14.5351702425758
96.4646464646465	-14.0651587866224
96.969696969697	-13.5699347948228
97.4747474747475	-13.0484198545616
97.979797979798	-12.499514367689
98.4848484848485	-11.9220951765014
98.989898989899	-11.3150203804671
99.4949494949495	-10.6771277038357
100	-10.0072343950446
