0	-10
1.51515151515152	-10.2836899871699
3.03030303030303	-10.5665851648503
4.54545454545454	-10.8486042869725
6.06060606060606	-11.1296607281631
7.57575757575758	-11.4096619709667
9.09090909090909	-11.6885090581078
10.6060606060606	-11.9660960066846
12.1212121212121	-12.2423091809899
13.6363636363636	-12.5170266204624
15.1515151515152	-12.7901173190484
16.6666666666667	-13.0614404520279
18.1818181818182	-13.3308445461302
19.6969696969697	-13.5981665885028
21.2121212121212	-13.8632310698595
22.7272727272727	-14.1258489568726
24.2424242424242	-14.3858165886086
25.7575757575758	-14.6429144915631
27.2727272727273	-14.8969061076008
28.7878787878788	-15.1475364288866
30.3030303030303	-15.3945305336887
31.8181818181818	-15.6375920167965
33.3333333333333	-15.8764013081795
34.8484848484849	-16.1106138735233
36.3636363636364	-16.3398582903377
37.8787878787879	-16.5637341936218
39.3939393939394	-16.7818100854055
40.9090909090909	-16.9936210032796
42.4242424242424	-17.1986660438068
43.9393939393939	-17.3964057383762
45.4545454545455	-17.5862592804882
46.969696969697	-17.7676016067139
48.4848484848485	-17.9397603358442
50	-18.1020125768245
51.5151515151515	-18.2535816193774
53.030303030303	-18.393633532379
54.5454545454545	-18.5212736991444
56.0606060606061	-18.6355433393813
57.5757575757576	-18.7354160711403
59.0909090909091	-18.8197946042468
60.6060606060606	-18.8875076556887
62.1212121212121	-18.937307248547
63.6363636363636	-18.9678665406742
65.1515151515152	-18.9777784611018
66.6666666666667	-18.9655553807935
68.1818181818182	-18.9296302861221
69.6969696969697	-18.8683597919014
71.2121212121212	-18.780029762943
72.7272727272727	-18.6628640188608
73.7373737373737	-18.5678345294628
74.7474747474748	-18.4586293244847
75.7575757575758	-18.3346958071729
76.7676767676768	-18.195481855877
77.7777777777778	-18.0404402272302
78.7878787878788	-17.8690337645432
79.7979797979798	-17.6807414948034
80.8080808080808	-17.4750656913148
81.8181818181818	-17.2515399501698
82.8282828282828	-17.0097383095975
83.8383838383838	-16.7492853814039
84.8484848484848	-16.4698673930322
85.8585858585859	-16.1712439412027
86.8686868686869	-15.8532601056122
87.8787878787879	-15.5158583996196
88.8888888888889	-15.1590897948363
89.8989898989899	-14.7831227905167
90.9090909090909	-14.3882491655529
91.9191919191919	-13.9748847449331
92.9292929292929	-13.5435631706787
93.9393939393939	-13.0949204076472
94.4444444444444	-12.864321196959
94.9494949494949	-12.6296621830817
95.4545454545455	-12.3910374481155
95.959595959596	-12.1485396775027
96.4646464646465	-11.9022582957356
96.969696969697	-11.6522766909536
97.4747474747475	-11.3986698334523
97.979797979798	-11.1415009826327
98.4848484848485	-10.8808186241619
98.989898989899	-10.6166528967035
99.4949494949495	-10.3490114980446
100	-10.07787637055
